StartFontMetrics 4.1
FontName NunitoSans-Regular
FullName Nunito Sans Regular
Notice Copyright 2016 The Nunito Project Authors [contact@sansoxygen.com]
EncodingScheme FontSpecific
FamilyName Nunito Sans
Weight Regular
Version Version 2.001
Characters 221
ItalicAngle 0.0
Ascender 1011
Descender -353
UnderlineThickness 50
UnderlinePosition -75
IsFixedPitch false
FontBBox -75 -200 1272 917
StartCharMetrics 256
C 0 ; WX 0 ; N .null ; B 18 0 709 705 ;
C 1 ; WX 443 ; N .notdef ; B 82 -180 363 705 ;
C 2 ; WX 443 ; N .notdef ; B 82 -180 363 705 ;
C 3 ; WX 443 ; N .notdef ; B 82 -180 363 705 ;
C 4 ; WX 443 ; N .notdef ; B 82 -180 363 705 ;
C 5 ; WX 443 ; N .notdef ; B 82 -180 363 705 ;
C 6 ; WX 443 ; N .notdef ; B 82 -180 363 705 ;
C 7 ; WX 443 ; N .notdef ; B 82 -180 363 705 ;
C 8 ; WX 443 ; N .notdef ; B 82 -180 363 705 ;
C 9 ; WX 443 ; N .notdef ; B 82 -180 363 705 ;
C 10 ; WX 443 ; N .notdef ; B 82 -180 363 705 ;
C 11 ; WX 443 ; N .notdef ; B 82 -180 363 705 ;
C 12 ; WX 443 ; N .notdef ; B 82 -180 363 705 ;
C 13 ; WX 258 ; N CR ; B 18 0 709 705 ;
C 14 ; WX 443 ; N .notdef ; B 82 -180 363 705 ;
C 15 ; WX 443 ; N .notdef ; B 82 -180 363 705 ;
C 16 ; WX 443 ; N .notdef ; B 82 -180 363 705 ;
C 17 ; WX 443 ; N .notdef ; B 82 -180 363 705 ;
C 18 ; WX 443 ; N .notdef ; B 82 -180 363 705 ;
C 19 ; WX 443 ; N .notdef ; B 82 -180 363 705 ;
C 20 ; WX 443 ; N .notdef ; B 82 -180 363 705 ;
C 21 ; WX 443 ; N .notdef ; B 82 -180 363 705 ;
C 22 ; WX 443 ; N .notdef ; B 82 -180 363 705 ;
C 23 ; WX 443 ; N .notdef ; B 82 -180 363 705 ;
C 24 ; WX 443 ; N .notdef ; B 82 -180 363 705 ;
C 25 ; WX 443 ; N .notdef ; B 82 -180 363 705 ;
C 26 ; WX 443 ; N .notdef ; B 82 -180 363 705 ;
C 27 ; WX 443 ; N .notdef ; B 82 -180 363 705 ;
C 28 ; WX 443 ; N .notdef ; B 82 -180 363 705 ;
C 29 ; WX 443 ; N .notdef ; B 82 -180 363 705 ;
C 30 ; WX 443 ; N .notdef ; B 82 -180 363 705 ;
C 31 ; WX 443 ; N .notdef ; B 82 -180 363 705 ;
C 32 ; WX 258 ; N space ; B 18 0 709 705 ;
C 33 ; WX 229 ; N exclam ; B 63 0 165 705 ;
C 34 ; WX 421 ; N quotedbl ; B 62 428 358 705 ;
C 35 ; WX 600 ; N numbersign ; B 35 0 565 705 ;
C 36 ; WX 600 ; N dollar ; B 47 -115 551 820 ;
C 37 ; WX 930 ; N percent ; B 55 -25 875 730 ;
C 38 ; WX 664 ; N ampersand ; B 52 -7 673 712 ;
C 39 ; WX 221 ; N quotesingle ; B 62 428 158 705 ;
C 40 ; WX 314 ; N parenleft ; B 103 -193 279 719 ;
C 41 ; WX 314 ; N parenright ; B 35 -193 211 719 ;
C 42 ; WX 450 ; N asterisk ; B 33 353 416 715 ;
C 43 ; WX 600 ; N plus ; B 56 41 544 529 ;
C 44 ; WX 229 ; N comma ; B 63 -114 165 102 ;
C 45 ; WX 425 ; N hyphen ; B 72 233 352 300 ;
C 46 ; WX 229 ; N period ; B 63 0 165 102 ;
C 47 ; WX 283 ; N slash ; B -20 -65 302 753 ;
C 48 ; WX 600 ; N zero ; B 53 -8 547 713 ;
C 49 ; WX 600 ; N one ; B 123 0 522 705 ;
C 50 ; WX 600 ; N two ; B 66 0 539 713 ;
C 51 ; WX 600 ; N three ; B 56 -7 525 713 ;
C 52 ; WX 600 ; N four ; B 51 0 564 705 ;
C 53 ; WX 600 ; N five ; B 79 -7 550 705 ;
C 54 ; WX 599 ; N six ; B 56 -8 550 713 ;
C 55 ; WX 600 ; N seven ; B 67 0 533 705 ;
C 56 ; WX 600 ; N eight ; B 47 -7 553 713 ;
C 57 ; WX 600 ; N nine ; B 51 -8 545 713 ;
C 58 ; WX 229 ; N colon ; B 63 0 165 487 ;
C 59 ; WX 229 ; N semicolon ; B 63 -114 165 487 ;
C 60 ; WX 600 ; N less ; B 56 32 544 536 ;
C 61 ; WX 600 ; N equal ; B 56 153 544 416 ;
C 62 ; WX 600 ; N greater ; B 56 32 544 536 ;
C 63 ; WX 443 ; N question ; B 0 0 419 713 ;
C 64 ; WX 926 ; N at ; B 49 -152 877 711 ;
C 65 ; WX 727 ; N A ; B 18 0 709 705 ;
C 66 ; WX 674 ; N B ; B 87 0 615 705 ;
C 67 ; WX 677 ; N C ; B 61 -8 628 713 ;
C 68 ; WX 739 ; N D ; B 87 0 678 705 ;
C 69 ; WX 582 ; N E ; B 87 0 533 705 ;
C 70 ; WX 557 ; N F ; B 87 0 523 705 ;
C 71 ; WX 724 ; N G ; B 61 -8 645 713 ;
C 72 ; WX 758 ; N H ; B 87 0 671 705 ;
C 73 ; WX 256 ; N I ; B 87 0 169 705 ;
C 74 ; WX 326 ; N J ; B -8 -7 239 705 ;
C 75 ; WX 628 ; N K ; B 87 0 638 705 ;
C 76 ; WX 540 ; N L ; B 87 0 522 705 ;
C 77 ; WX 841 ; N M ; B 87 0 753 705 ;
C 78 ; WX 739 ; N N ; B 87 0 652 705 ;
C 79 ; WX 764 ; N O ; B 61 -8 703 713 ;
C 80 ; WX 645 ; N P ; B 87 0 600 705 ;
C 81 ; WX 764 ; N Q ; B 61 -200 703 713 ;
C 82 ; WX 686 ; N R ; B 87 0 642 705 ;
C 83 ; WX 617 ; N S ; B 47 -8 571 713 ;
C 84 ; WX 598 ; N T ; B 12 0 586 705 ;
C 85 ; WX 724 ; N U ; B 82 -8 642 705 ;
C 86 ; WX 691 ; N V ; B 2 0 689 705 ;
C 87 ; WX 1101 ; N W ; B 33 0 1067 705 ;
C 88 ; WX 646 ; N X ; B 8 0 638 705 ;
C 89 ; WX 601 ; N Y ; B -18 0 618 705 ;
C 90 ; WX 590 ; N Z ; B 45 0 553 705 ;
C 91 ; WX 314 ; N bracketleft ; B 109 -180 306 705 ;
C 92 ; WX 282 ; N backslash ; B -20 -65 302 753 ;
C 93 ; WX 314 ; N bracketright ; B 8 -180 205 705 ;
C 94 ; WX 600 ; N asciicircum ; B 48 141 552 629 ;
C 95 ; WX 500 ; N underscore ; B 8 -53 492 0 ;
C 96 ; WX 300 ; N grave ; B -14 551 178 753 ;
C 97 ; WX 530 ; N a ; B 58 -7 457 499 ;
C 98 ; WX 582 ; N b ; B 75 -7 536 705 ;
C 99 ; WX 479 ; N c ; B 46 -7 456 499 ;
C 100 ; WX 582 ; N d ; B 46 -7 507 705 ;
C 101 ; WX 527 ; N e ; B 46 -7 483 499 ;
C 102 ; WX 328 ; N f ; B 7 0 346 708 ;
C 103 ; WX 586 ; N g ; B 46 -187 511 499 ;
C 104 ; WX 568 ; N h ; B 75 0 495 705 ;
C 105 ; WX 232 ; N i ; B 67 0 165 698 ;
C 106 ; WX 232 ; N j ; B -75 -184 165 698 ;
C 107 ; WX 500 ; N k ; B 75 0 509 705 ;
C 108 ; WX 232 ; N l ; B 75 0 156 705 ;
C 109 ; WX 852 ; N m ; B 75 0 779 499 ;
C 110 ; WX 568 ; N n ; B 75 0 495 499 ;
C 111 ; WX 555 ; N o ; B 46 -7 509 499 ;
C 112 ; WX 582 ; N p ; B 75 -180 536 499 ;
C 113 ; WX 582 ; N q ; B 46 -180 507 499 ;
C 114 ; WX 353 ; N r ; B 75 0 351 499 ;
C 115 ; WX 480 ; N s ; B 45 -7 432 499 ;
C 116 ; WX 340 ; N t ; B 7 -7 333 635 ;
C 117 ; WX 561 ; N u ; B 73 -7 485 487 ;
C 118 ; WX 514 ; N v ; B 10 0 505 486 ;
C 119 ; WX 842 ; N w ; B 25 0 817 487 ;
C 120 ; WX 518 ; N x ; B 9 0 509 487 ;
C 121 ; WX 514 ; N y ; B 10 -180 505 486 ;
C 122 ; WX 503 ; N z ; B 48 0 461 487 ;
C 123 ; WX 351 ; N braceleft ; B 49 -180 343 705 ;
C 124 ; WX 261 ; N bar ; B 92 -180 169 705 ;
C 125 ; WX 351 ; N braceright ; B 8 -180 302 705 ;
C 126 ; WX 600 ; N asciitilde ; B 56 215 544 354 ;
C 127 ; WX 443 ; N .notdef ; B 82 -180 363 705 ;
C 128 ; WX 600 ; N Euro ; B 17 -8 584 713 ;
C 129 ; WX 443 ; N .notdef ; B 82 -180 363 705 ;
C 130 ; WX 229 ; N quotesinglbase ; B 63 -114 165 102 ;
C 131 ; WX 600 ; N florin ; B 41 -185 558 709 ;
C 132 ; WX 395 ; N quotedblbase ; B 63 -114 331 102 ;
C 133 ; WX 687 ; N ellipsis ; B 63 0 623 102 ;
C 134 ; WX 325 ; N dagger ; B 20 165 305 713 ;
C 135 ; WX 325 ; N daggerdbl ; B 20 165 305 713 ;
C 136 ; WX 300 ; N circumflex ; B 4 551 296 753 ;
C 137 ; WX 1327 ; N perthousand ; B 55 -25 1272 730 ;
C 138 ; WX 617 ; N Scaron ; B 47 -8 571 917 ;
C 139 ; WX 260 ; N guilsinglleft ; B 61 85 213 445 ;
C 140 ; WX 1045 ; N OE ; B 61 0 996 705 ;
C 141 ; WX 443 ; N .notdef ; B 82 -180 363 705 ;
C 142 ; WX 590 ; N Zcaron ; B 45 0 553 917 ;
C 143 ; WX 443 ; N .notdef ; B 82 -180 363 705 ;
C 144 ; WX 395 ; N quotedblbase ; B 63 -114 331 102 ;
C 145 ; WX 229 ; N quoteleft ; B 63 494 165 711 ;
C 146 ; WX 229 ; N quoteright ; B 63 488 165 705 ;
C 147 ; WX 395 ; N quotedblleft ; B 63 494 331 711 ;
C 148 ; WX 395 ; N quotedblright ; B 63 488 331 705 ;
C 149 ; WX 524 ; N bullet ; B 81 88 443 443 ;
C 150 ; WX 500 ; N endash ; B 0 240 500 292 ;
C 151 ; WX 1000 ; N emdash ; B 0 240 1000 292 ;
C 152 ; WX 300 ; N tilde ; B -11 595 311 712 ;
C 153 ; WX 915 ; N trademark ; B 8 284 835 705 ;
C 154 ; WX 480 ; N scaron ; B 45 -7 432 753 ;
C 155 ; WX 258 ; N guilsinglright ; B 46 85 199 445 ;
C 156 ; WX 904 ; N oe ; B 46 -7 860 499 ;
C 157 ; WX 443 ; N .notdef ; B 82 -180 363 705 ;
C 158 ; WX 503 ; N zcaron ; B 48 0 461 753 ;
C 159 ; WX 601 ; N Ydieresis ; B -18 0 618 885 ;
C 160 ; WX 258 ; N uni00A0 ; B 62 -115 566 820 ;
C 161 ; WX 229 ; N exclamdown ; B 63 -180 165 487 ;
C 162 ; WX 600 ; N cent ; B 91 -115 502 606 ;
C 163 ; WX 600 ; N sterling ; B 48 0 565 713 ;
C 164 ; WX 600 ; N currency ; B 55 -5 543 496 ;
C 165 ; WX 600 ; N yen ; B -5 0 605 705 ;
C 166 ; WX 261 ; N brokenbar ; B 92 -180 169 705 ;
C 167 ; WX 537 ; N section ; B 41 -187 496 712 ;
C 168 ; WX 300 ; N dieresis ; B 20 610 280 695 ;
C 169 ; WX 815 ; N copyright ; B 50 -5 765 710 ;
C 170 ; WX 330 ; N ordfeminine ; B 30 407 288 710 ;
C 171 ; WX 441 ; N guillemotleft ; B 61 85 394 445 ;
C 172 ; WX 600 ; N logicalnot ; B 56 149 544 419 ;
C 173 ; WX 425 ; N uni00AD ; B 72 233 352 300 ;
C 174 ; WX 815 ; N registered ; B 50 -5 765 710 ;
C 175 ; WX 300 ; N macron ; B 0 622 300 683 ;
C 176 ; WX 365 ; N degree ; B 37 420 328 710 ;
C 177 ; WX 600 ; N plusminus ; B 56 0 544 529 ;
C 178 ; WX 380 ; N uni00B2 ; B 39 282 335 709 ;
C 179 ; WX 380 ; N uni00B3 ; B 34 278 330 709 ;
C 180 ; WX 300 ; N acute ; B 122 551 314 753 ;
C 181 ; WX 561 ; N uni00B5 ; B 73 -180 485 487 ;
C 182 ; WX 582 ; N paragraph ; B 45 -180 496 705 ;
C 183 ; WX 229 ; N periodcentered ; B 63 215 165 317 ;
C 184 ; WX 300 ; N cedilla ; B 63 -193 267 20 ;
C 185 ; WX 380 ; N uni00B9 ; B 80 282 327 705 ;
C 186 ; WX 342 ; N ordmasculine ; B 22 407 320 710 ;
C 187 ; WX 439 ; N guillemotright ; B 46 85 380 445 ;
C 188 ; WX 933 ; N onequarter ; B 80 -25 910 730 ;
C 189 ; WX 933 ; N onehalf ; B 80 -25 888 730 ;
C 190 ; WX 933 ; N threequarters ; B 34 -25 910 730 ;
C 191 ; WX 443 ; N questiondown ; B 24 -187 442 487 ;
C 192 ; WX 727 ; N Agrave ; B 18 0 709 917 ;
C 193 ; WX 727 ; N Aacute ; B 18 0 709 917 ;
C 194 ; WX 727 ; N Acircumflex ; B 18 0 709 917 ;
C 195 ; WX 727 ; N Atilde ; B 18 0 709 901 ;
C 196 ; WX 727 ; N Adieresis ; B 18 0 709 885 ;
C 197 ; WX 727 ; N Aring ; B 18 0 709 872 ;
C 198 ; WX 991 ; N AE ; B -2 0 942 705 ;
C 199 ; WX 677 ; N Ccedilla ; B 61 -193 628 713 ;
C 200 ; WX 582 ; N Egrave ; B 87 0 533 917 ;
C 201 ; WX 582 ; N Eacute ; B 87 0 533 917 ;
C 202 ; WX 582 ; N Ecircumflex ; B 87 0 533 917 ;
C 203 ; WX 582 ; N Edieresis ; B 87 0 533 885 ;
C 204 ; WX 256 ; N Igrave ; B -33 0 169 917 ;
C 205 ; WX 256 ; N Iacute ; B 87 0 289 917 ;
C 206 ; WX 256 ; N Icircumflex ; B -18 0 274 917 ;
C 207 ; WX 256 ; N Idieresis ; B -2 0 258 885 ;
C 208 ; WX 752 ; N Eth ; B 8 0 691 705 ;
C 209 ; WX 739 ; N Ntilde ; B 87 0 652 901 ;
C 210 ; WX 764 ; N Ograve ; B 61 -8 703 917 ;
C 211 ; WX 764 ; N Oacute ; B 61 -8 703 917 ;
C 212 ; WX 764 ; N Ocircumflex ; B 61 -8 703 917 ;
C 213 ; WX 764 ; N Otilde ; B 61 -8 703 901 ;
C 214 ; WX 764 ; N Odieresis ; B 61 -8 703 885 ;
C 215 ; WX 600 ; N multiply ; B 66 51 534 519 ;
C 216 ; WX 764 ; N Oslash ; B 61 -47 703 752 ;
C 217 ; WX 724 ; N Ugrave ; B 82 -8 642 917 ;
C 218 ; WX 724 ; N Uacute ; B 82 -8 642 917 ;
C 219 ; WX 724 ; N Ucircumflex ; B 82 -8 642 917 ;
C 220 ; WX 724 ; N Udieresis ; B 82 -8 642 885 ;
C 221 ; WX 601 ; N Yacute ; B -18 0 618 917 ;
C 222 ; WX 645 ; N Thorn ; B 87 0 600 705 ;
C 223 ; WX 616 ; N germandbls ; B 75 -7 586 710 ;
C 224 ; WX 530 ; N agrave ; B 58 -7 457 753 ;
C 225 ; WX 530 ; N aacute ; B 58 -7 457 753 ;
C 226 ; WX 530 ; N acircumflex ; B 58 -7 457 753 ;
C 227 ; WX 530 ; N atilde ; B 58 -7 457 712 ;
C 228 ; WX 530 ; N adieresis ; B 58 -7 457 695 ;
C 229 ; WX 530 ; N aring ; B 58 -7 457 751 ;
C 230 ; WX 853 ; N ae ; B 58 -7 809 499 ;
C 231 ; WX 479 ; N ccedilla ; B 46 -193 456 499 ;
C 232 ; WX 527 ; N egrave ; B 46 -7 483 753 ;
C 233 ; WX 527 ; N eacute ; B 46 -7 483 753 ;
C 234 ; WX 527 ; N ecircumflex ; B 46 -7 483 753 ;
C 235 ; WX 527 ; N edieresis ; B 46 -7 483 695 ;
C 236 ; WX 232 ; N igrave ; B -48 0 156 753 ;
C 237 ; WX 232 ; N iacute ; B 75 0 280 753 ;
C 238 ; WX 232 ; N icircumflex ; B -30 0 262 753 ;
C 239 ; WX 232 ; N idieresis ; B -14 0 246 695 ;
C 240 ; WX 559 ; N eth ; B 46 -7 513 712 ;
C 241 ; WX 568 ; N ntilde ; B 75 0 495 712 ;
C 242 ; WX 555 ; N ograve ; B 46 -7 509 753 ;
C 243 ; WX 555 ; N oacute ; B 46 -7 509 753 ;
C 244 ; WX 555 ; N ocircumflex ; B 46 -7 509 753 ;
C 245 ; WX 555 ; N otilde ; B 46 -7 509 712 ;
C 246 ; WX 555 ; N odieresis ; B 46 -7 509 695 ;
C 247 ; WX 600 ; N divide ; B 56 38 544 530 ;
C 248 ; WX 555 ; N oslash ; B 46 -46 509 537 ;
C 249 ; WX 561 ; N ugrave ; B 73 -7 485 753 ;
C 250 ; WX 561 ; N uacute ; B 73 -7 485 753 ;
C 251 ; WX 561 ; N ucircumflex ; B 73 -7 485 753 ;
C 252 ; WX 561 ; N udieresis ; B 73 -7 485 695 ;
C 253 ; WX 514 ; N yacute ; B 10 -180 505 753 ;
C 254 ; WX 582 ; N thorn ; B 75 -180 536 705 ;
C 255 ; WX 514 ; N ydieresis ; B 10 -180 505 695 ;
EndCharMetrics
EndFontMetrics
